This is XeTeX, Version 3.14159265-2.6-0.99999 (TeX Live 2018) (preloaded format=xelatex 2018.6.4)  16 JUN 2018 15:42
entering extended mode
 restricted \write18 enabled.
 file:line:error style messages enabled.
 %&-line parsing enabled.
**fig-11.tikz
(./fig-11.tikz
LaTeX2e <2018-04-01> patch level 5

./fig-11.tikz:1: LaTeX Error: Environment tikzpicture undefined.

See the LaTeX manual or LaTeX Companion for explanation.
Type  H <return>  for immediate help.
 ...                                              
                                                  
l.1 \begin{tikzpicture}
                       [line cap=round,line join=round,>=triangle 45,rounded...

? 
./fig-11.tikz:1: Emergency stop.
 ...                                              
                                                  
l.1 \begin{tikzpicture}
                       [line cap=round,line join=round,>=triangle 45,rounded...

Your command was ignored.
Type  I <command> <return>  to replace it with another command,
or  <return>  to continue without it.

 
Here is how much of TeX's memory you used:
 6 strings out of 492970
 187 string characters out of 6133939
 63619 words of memory out of 5000000
 4112 multiletter control sequences out of 15000+600000
 3640 words of font info for 14 fonts, out of 8000000 for 9000
 1348 hyphenation exceptions out of 8191
 4i,0n,4p,119b,16s stack positions out of 5000i,500n,10000p,200000b,80000s
No pages of output.
