This is XeTeX, Version 3.14159265-2.6-0.99999 (TeX Live 2018) (preloaded format=xelatex 2018.6.4)  15 JUN 2018 08:52
entering extended mode
 restricted \write18 enabled.
 file:line:error style messages enabled.
 %&-line parsing enabled.
**fig-07.tikz
(./fig-07.tikz
LaTeX2e <2018-04-01> patch level 5

./fig-07.tikz:1: LaTeX Error: Missing \begin{document}.

See the LaTeX manual or LaTeX Companion for explanation.
Type  H <return>  for immediate help.
 ...                                              
                                                  
l.1 {\noindent
              
? 
./fig-07.tikz:1: Emergency stop.
 ...                                              
                                                  
l.1 {\noindent
              
You're in trouble here.  Try typing  <return>  to proceed.
If that doesn't work, type  X <return>  to quit.

 
Here is how much of TeX's memory you used:
 6 strings out of 492970
 178 string characters out of 6133939
 63619 words of memory out of 5000000
 4112 multiletter control sequences out of 15000+600000
 3640 words of font info for 14 fonts, out of 8000000 for 9000
 1348 hyphenation exceptions out of 8191
 4i,0n,4p,24b,16s stack positions out of 5000i,500n,10000p,200000b,80000s
No pages of output.
